dump.vcd
$date
    Sep 19, 2023  12:19:06
$end
$version
    TOOL:	ncsim(64)	15.20-s051
$end
$timescale
    1 ns
$end

$scope module top $end
$var reg       1 !    clk  $end
$var reg       1 "    rst  $end

$scope module vif $end
$var wire      1 #    clk  $end
$var wire      1 $    rst  $end
$var reg       8 %    din [7:0] $end
$var reg       1 &    wr_en  $end
$var reg       1 '    rd_en  $end
$var reg       8 (    dout [7:0] $end
$var reg       1 )    full  $end
$var reg       1 *    empty  $end

$scope clocking driver_cb $end
$var reg       8 +    din [7:0] $end
$var reg       1 ,    wr_en  $end
$var reg       1 -    rd_en  $end
$var reg       1 .    full  $end
$var reg       1 /    empty  $end
$var reg       1 0    rst  $end
$var reg       8 1    dout [7:0] $end
$upscope $end


$scope clocking monitor_cb $end
$var reg       8 2    din [7:0] $end
$var reg       1 3    wr_en  $end
$var reg       1 4    rd_en  $end
$var reg       8 5    dout [7:0] $end
$var reg       1 6    full  $end
$var reg       1 7    empty  $end
$var reg       1 8    rst  $end
$upscope $end

$upscope $end


$scope module dut $end
$var wire      8 9    din [7:0] $end
$var wire      1 :    wr_en  $end
$var wire      1 ;    rd_en  $end
$var wire      1 <    clk  $end
$var wire      1 =    rst  $end
$var reg       8 >    dout [7:0] $end
$var reg       1 ?    full  $end
$var reg       1 @    empty  $end
$var reg       1 A    almost_full  $end
$var reg       3 B    wr_pntr [2:0] $end
$var reg       3 C    rd_pntr [2:0] $end
$var reg       3 D    dcount [2:0] $end
$upscope $end

$upscope $end

$enddefinitions $end
$dumpvars
0!
1"
0#
1$
bx %
x&
x'
bx (
x)
x*
bx +
x,
x-
x.
x/
x0
bx 1
bx 2
x3
x4
bx 5
x6
x7
x8
bx 9
x:
x;
0<
1=
bx >
x?
x@
xA
bx B
bx C
bx D
$end
#5
1!
0"
0=
1<
1#
0$
b0 >
b0 D
b0 B
b0 C
18
0?
1@
b0 (
0&
0,
0'
0-
0)
0.
0*
0/
0;
0:
#10
0!
0<
0#
#15
1!
1<
1#
03
04
b0 5
06
07
08
b0 1
#20
0!
0<
0#
#25
1"
1!
1<
1#
1=
1$
#30
0!
0<
0#
#35
1!
1<
1#
18
b11001000 %
b11001000 +
1&
1,
1:
b11001000 9
#40
0!
0<
0#
#45
1!
1<
1#
b11001000 2
13
b1 B
b1 D
0@
#50
0!
0<
0#
#55
1!
1<
1#
b10 B
b10 D
1'
1-
1;
#60
0!
0<
0#
#65
1!
1<
1#
14
b11 B
b11 D
b10111111 %
b10111111 +
b10111111 9
#70
0!
0<
0#
#75
1!
1<
1#
b10111111 2
b100 B
b100 D
#80
0!
0<
0#
#85
1!
1<
1#
b101 B
b101 D
#90
0!
0<
0#
#95
1!
1<
1#
b110 B
b110 D
#100
0!
0<
0#
#105
1!
1<
1#
b111 B
b111 D
1?
#110
0!
0<
0#
#115
1!
1<
1#
b11001000 >
b1 C
b110 D
0?
b11001000 (
#120
0!
0<
0#
#125
1!
1<
1#
b11001000 5
b11001000 1
b0 B
b111 D
1?
#130
0!
0<
0#
#135
1!
1<
1#
b10 C
b110 D
0?
#140
0!
0<
0#
#145
1!
1<
1#
b1 B
b111 D
1?
#150
0!
0<
0#
#155
1!
1<
1#
b11 C
b110 D
0?
#160
0!
0<
0#
#165
1!
1<
1#
b10 B
b111 D
1?
#170
0!
0<
0#
#175
1!
1<
1#
b10111111 >
b100 C
b110 D
0?
b10111111 (
#180
0!
0<
0#
#185
1!
1<
1#
b10111111 5
b10111111 1
b11 B
b111 D
1?
#190
0!
0<
0#
#195
1!
1<
1#
b101 C
b110 D
0?
#200
0!
0<
0#
#205
1!
1<
1#
b100 B
b111 D
1?
#210
0!
0<
0#
#215
1!
1<
1#
b110 C
b110 D
0?
#220
0!
0<
0#
#225
1!
1<
1#
b101 B
b111 D
1?
#230
0!
0<
0#
#235
1!
1<
1#
b111 C
b110 D
0?
#240
0!
0<
0#
#245
1!
1<
1#
b110 B
b111 D
1?
#250
0!
0<
0#
#255
1!
1<
1#
b0 C
b110 D
0?
#260
0!
0<
0#
#265
1!
1<
1#
b111 B
b111 D
1?
#270
0!
0<
0#
#275
1!
1<
1#
b1 C
b110 D
0?
#280
0!
0<
0#
#285
1!
1<
1#
b0 B
b111 D
1?
#290
0!
0<
0#
#295
1!
1<
1#
b10 C
b110 D
0?
#300
0!
0<
0#
#305
1!
1<
1#
b1 B
b111 D
1?
#310
0!
0<
0#
#315
1!
1<
1#
b11 C
b110 D
0?
#320
0!
0<
0#
#325
1!
1<
1#
b10 B
b111 D
1?
#330
0!
0<
0#
#335
1!
1<
1#
b100 C
b110 D
0?
#340
0!
0<
0#
#345
1!
1<
1#
b11 B
b111 D
1?
#350
0!
0<
0#
#355
1!
1<
1#
b101 C
b110 D
0?
#360
0!
0<
0#
#365
1!
1<
1#
b100 B
b111 D
1?
#370
0!
0<
0#
#375
1!
1<
1#
b110 C
b110 D
0?
#380
0!
0<
0#
#385
1!
1<
1#
b101 B
b111 D
1?
#390
0!
0<
0#
#395
1!
1<
1#
b111 C
b110 D
0?
#400
0!
0<
0#
#405
1!
1<
1#
b110 B
b111 D
1?
#410
0!
0<
0#
#415
1!
1<
1#
b0 C
b110 D
0?
#420
0!
0<
0#
#425
1!
1<
1#
b111 B
b111 D
1?
#430
0!
0<
0#
#435
1!
1<
1#
b1 C
b110 D
0?
#440
0!
0<
0#
#445
1!
1<
1#
b0 B
b111 D
1?
#450
0!
0<
0#
#455
1!
1<
1#
b10 C
b110 D
0?
#460
0!
0<
0#
#465
1!
1<
1#
b1 B
b111 D
1?
#470
0!
0<
0#
#475
1!
1<
1#
b11 C
b110 D
0?
#480
0!
0<
0#
#485
1!
1<
1#
b10 B
b111 D
1?
#490
0!
0<
0#
#495
1!
1<
1#
b100 C
b110 D
0?
#500
0!
0<
0#
#505
1!
1<
1#
b11 B
b111 D
1?
#510
0!
0<
0#
#515
1!
1<
1#
b101 C
b110 D
0?
#520
0!
0<
0#
#525
1!
1<
1#
b100 B
b111 D
1?
#530
0!
0<
0#
#535
1!
1<
1#
b110 C
b110 D
0?
#540
0!
0<
0#
#545
1!
1<
1#
b101 B
b111 D
1?
#550
0!
0<
0#
#555
1!
1<
1#
b111 C
b110 D
0?
#560
0!
0<
0#
#565
1!
1<
1#
b110 B
b111 D
1?
#570
0!
0<
0#
#575
1!
1<
1#
b0 C
b110 D
0?
#580
0!
0<
0#
#585
1!
1<
1#
b111 B
b111 D
1?
#590
0!
0<
0#
#595
1!
1<
1#
b1 C
b110 D
0?
#600
0!
0<
0#
#605
1!
1<
1#
b0 B
b111 D
1?
#610
0!
0<
0#
#615
1!
1<
1#
b10 C
b110 D
0?
#620
0!
0<
0#
#625
1!
1<
1#
b1 B
b111 D
1?
#630
0!
0<
0#
#635
1!
1<
1#
b11 C
b110 D
0?
#640
0!
0<
0#
#645
1!
1<
1#
b10 B
b111 D
1?
#650
0!
0<
0#
#655
1!
1<
1#
b100 C
b110 D
0?
#660
0!
0<
0#
#665
1!
1<
1#
b11 B
b111 D
1?
#670
0!
0<
0#
#675
1!
1<
1#
b101 C
b110 D
0?
#680
0!
0<
0#
#685
1!
1<
1#
b100 B
b111 D
1?
#690
0!
0<
0#
#695
1!
1<
1#
b110 C
b110 D
0?
#700
0!
0<
0#
#705
1!
1<
1#
b101 B
b111 D
1?
#710
0!
0<
0#
#715
1!
1<
1#
b111 C
b110 D
0?
#720
0!
0<
0#
#725
1!
1<
1#
b110 B
b111 D
1?
#730
0!
0<
0#
#735
1!
1<
1#
b0 C
b110 D
0?
#740
0!
0<
0#
#745
1!
1<
1#
b111 B
b111 D
1?
#750
0!
0<
0#
#755
1!
1<
1#
b1 C
b110 D
0?
#760
0!
0<
0#
#765
1!
1<
1#
b0 B
b111 D
1?
#770
0!
0<
0#
#775
1!
1<
1#
b10 C
b110 D
0?
#780
0!
0<
0#
#785
1!
1<
1#
b1 B
b111 D
1?
#790
0!
0<
0#
#795
1!
1<
1#
b11 C
b110 D
0?
#800
0!
0<
0#
#805
1!
1<
1#
b10 B
b111 D
1?
#810
0!
0<
0#
#815
1!
1<
1#
b100 C
b110 D
0?
